multidimensional scaling of variables • ordr
…
data(qswur_usa, package = "ordr")
print(qswur_usa)

## # A tibble: 612 × 13
##     year institution      size  focus res     age status rk_academic rk_employer
##    <int> <chr>            <fct> <fct> <fct> <int> <chr>        <int>       <int>
##  1  2017 MASSACHUSETTS I… M     CO    VH        5 B                6           4
##  2  2017 STANFORD UNIVER… L     FC    VH        5 A                5           5
##  3  2017 HARVARD UNIVERS… L     FC    VH        5 B                1           1
##  4  2017 CALIFORNIA INST… S     CO    VH        5 B               23          90
##  5  2017 UNIVERSITY OF C… L     FC    VH        5 B               13          47
##  6  2017 PRINCETON UNIVE… M     CO    VH        5 B               10          32
##  7  2017 YALE UNIVERSITY  L     FC    VH        5 B                9          12
##  8  2017 CORNELL UNIVERS… L     FC    VH        5 B               21          49
##  9  2017 JOHNS HOPKINS U… L     FC    VH        5 B               41         139
## 10  2017 UNIVERSITY OF P… L     FC    VH        5 B               33          35
## # ℹ 602 more rows
## # ℹ 4 more variables: rk_ratio <int>, rk_citations <int>,
## #   rk_intl_faculty <int>, rk_intl_students <int>
…
qswur_usa %>%
  filter(year == 2020L) %>%
  select(institution, starts_with("rk_")) %>%
  mutate_at(
    vars(starts_with("rk_")),
    ~ match(., sort(unique(as.numeric(.))))
  ) %>%
  filter_at(vars(starts_with("rk_")), ~ ! is.na(.)) ->
  qswur_usa2020
print(qswur_usa2020)

## # A tibble: 38 × 7
##    institution     rk_academic rk_employer rk_ratio rk_citations rk_intl_faculty
##    <chr>                 <int>       <int>    <int>        <int>           <int>
##  1 MASSACHUSETTS …           3           2        8            4               1
##  2 STANFORD UNIVE…           2           3        5            7               2
##  3 HARVARD UNIVER…           1           1       17            5               8
##  4 CALIFORNIA INS…          12          17        1            2               3
##  5 UNIVERSITY OF …           9          11       19           22              20
##  6 PRINCETON UNIV…           7           7       35            1              26
##  7 CORNELL UNIVER…          11          13       40            9               5
##  8 UNIVERSITY OF …          14          12       11           31              12
##  9 YALE UNIVERSITY           6           4        2           46              17
## 10 COLUMBIA UNIVE…           8           8       10           47              51
## # ℹ 28 more rows
## # ℹ 1 more variable: rk_intl_students <int>
…
