Tidy cmdscale() list output — cmdscale_tidiers • ordr
…
#>    point           PCo1   PCo2   PCo3
#>    <chr>          <dbl>  <dbl>  <dbl>
#>  1 Atlanta        -719.  143.  -35.1 
#>  2 Chicago        -382. -341.  -29.6 
#>  3 Denver          482.  -25.3 -53.4 
#>  4 Houston        -161.  573.   -1.45
#>  5 LosAngeles     1204.  390.   18.6 
#>  6 Miami         -1134.  582.   32.3 
#>  7 NewYork       -1072. -519.   34.3 
#>  8 SanFrancisco   1421.  113.    7.75
#>  9 Seattle        1342. -580.   23.7 
#> 10 Washington.DC  -980. -335.    2.90
# return the upper triangle of the doubly-centered distance matrix in tidy form
tidy(usa_mds, matrix = "x")
#> # A tibble: 45 × 3
#>    point1  point2               DC
#>    <chr>   <chr>             <dbl>
#>  1 Atlanta Chicago        -455349.
#>  2 Atlanta Denver          696244.
#>  3 Atlanta Houston        -397937.
#>  4 Atlanta LosAngeles     1616685.
#>  5 Atlanta Miami         -1789714.
#>  6 Atlanta NewYork       -1393392.
#>  7 Atlanta SanFrancisco   2010263.
#>  8 Atlanta Seattle        2100366.
#>  9 Atlanta Washington.DC -1312890.
#> 10 Chicago Denver          348058.
#> # … with 35 more rows
#> # ℹ Use `print(n = ...)` to see more rows
…
