Fortify a tbl_ord for plotting — fortify • ordr
…
If any augmented variables are included (i.e. unless include = "coordinates"), then the tibble is assigned a "coordinates" attribute
whose value is obtained via get_coord(). (That this attribute will not be
printed with the tibble.) This facilitates some downstream functionality that
relies on more than those coordinates used as position aesthetics in a
biplot, in particular stat_spantree().

    Examples

# a 'tbl_ord' object
pca <- as_tbl_ord(prcomp(USArrests))
pca <- confer_inertia(pca, "symmetric")
# fortify/tidy a 'tbl_ord' object
fortify(pca)
#> # A tibble: 54 x 7
#>       PC1    PC2     PC3    PC4 .name       .matrix .center
#>     <dbl>  <dbl>   <dbl>  <dbl> <chr>       <chr>     <dbl>
#>  1  2.68  -1.15  -0.370  -0.578 Alabama     u            NA
#>  2  3.83  -1.80   2.99    0.982 Alaska      u            NA
#>  3  5.12   0.885 -0.250   1.04  Arizona     u            NA
#>  4  0.758 -1.67   0.0312  0.125 Arkansas    u            NA
#>  5  4.44   2.26   1.00    0.674 California  u            NA
#>  6  1.44   1.38   1.82    0.413 Colorado    u            NA
#>  7 -2.51   1.30  -1.25    0.168 Connecticut u            NA
#>  8  2.76   0.136 -1.67    0.894 Delaware    u            NA
#>  9  6.83   0.629 -0.445  -0.299 Florida     u            NA
#> 10  1.67  -0.731  0.536  -1.76  Georgia     u            NA
#> # … with 44 more rows
tidy(pca)
#> # A tibble: 54 x 7
#>       PC1    PC2     PC3    PC4 .name       .matrix .center
#>     <dbl>  <dbl>   <dbl>  <dbl> <chr>       <chr>     <dbl>
#>  1  2.68  -1.15  -0.370  -0.578 Alabama     u            NA
#>  2  3.83  -1.80   2.99    0.982 Alaska      u            NA
#>  3  5.12   0.885 -0.250   1.04  Arizona     u            NA
#>  4  0.758 -1.67   0.0312  0.125 Arkansas    u            NA
#>  5  4.44   2.26   1.00    0.674 California  u            NA
#>  6  1.44   1.38   1.82    0.413 Colorado    u            NA
#>  7 -2.51   1.30  -1.25    0.168 Connecticut u            NA
#>  8  2.76   0.136 -1.67    0.894 Delaware    u            NA
#>  9  6.83   0.629 -0.445  -0.299 Florida     u            NA
#> 10  1.67  -0.731  0.536  -1.76  Georgia     u            NA
#> # … with 44 more rows
…
