Render text at ordinates radiating out from the origin — geom-biplot-text-radiate • ordr
…
# Reproduce Exhibit 3.2 in Greenacre (2010)
bioenv %>%
  dplyr::mutate_at(dplyr::vars(a:e), ~ . ^ (1/4)) %>%
  dplyr::mutate_at(dplyr::vars(Pollution:Depth), ~ as.vector(scale(.))) %>%
  print() -> bioenv_4rt
#> # A tibble: 30 x 10
#>    site      a     b     c     d     e Pollution   Depth Temperature Sediment
#>    <chr> <dbl> <dbl> <dbl> <dbl> <dbl>     <dbl>   <dbl>       <dbl> <chr>   
#>  1 s1     0     1.19  1.73  1.93  1.19    0.132  -0.156          3.5 S       
#>  2 s2     2.26  1.41  1.90  1.82  0      -0.802   0.0363         2.5 C       
#>  3 s3     0     1.78  1.73  1.68  0       0.413  -0.988          2.7 C       
#>  4 s4     0     0     1.97  1.32  0       1.72   -0.668          2.9 S       
#>  5 s5     1.90  1.50  1.32  1.78  1.63   -0.288  -0.860          3.1 C       
#>  6 s6     2.36  2.14  1.90  2     1.50   -0.895   1.25           3.5 G       
#>  7 s7     1.73  1.57  0     1.82  1.19    0.0389 -1.37           2.9 S       
#>  8 s8     1.19  0     0     0     1       0.272  -0.860          3.3 C       
#>  9 s9     2.03  1.63  1.78  1.93  1.57   -0.288  -0.412          3.4 C       
#> 10 s10    0     1.50  2.26  1.73  0       2.56   -0.348          3   S       
#> # … with 20 more rows
…
