Functionality for eigendecompositions — methods-eigen • ordr
…
#>                EV1       EV2        EV3         EV4         EV5
#> Mr Hi   0.35549144 0.3868611 -0.1978576  0.01422809  0.14300973
#> Actor 2 0.26595992 0.2689395  0.2502973 -0.04906027  0.28969138
#> Actor 3 0.31719250 0.1311596  0.2466749  0.07650617 -0.45963300
#> Actor 4 0.21117972 0.2529458  0.2249299  0.04515472 -0.10742254
#> Actor 5 0.07596882 0.1338970 -0.3248366 -0.04886473 -0.01416170
#> Actor 6 0.07948305 0.1456571 -0.4246940 -0.07819630 -0.14989457
#> Actor 7 0.07948305 0.1456571 -0.4246940 -0.07819630 -0.14989457
#> Actor 8 0.17095975 0.2089392  0.1796823  0.03760303 -0.09040377
# summarize eigenvectors
tidy(karate_eigen)

#> # A tibble: 34 x 4
#>    .name .values .inertia .prop_var
#>    <fct>   <dbl>    <dbl>     <dbl>
#>  1 EV1     6.73     6.73   -1.03e15
#>  2 EV2     4.98     4.98   -7.59e14
#>  3 EV3     2.92     2.92   -4.45e14
#>  4 EV4     2.31     2.31   -3.52e14
#>  5 EV5     1.49     1.49   -2.27e14
#>  6 EV6     1.45     1.45   -2.21e14
#>  7 EV7     1.08     1.08   -1.65e14
#>  8 EV8     1.03     1.03   -1.57e14
#>  9 EV9     0.834    0.834  -1.27e14
#> 10 EV10    0.616    0.616  -9.39e13
#> # … with 24 more rows
…
