Functionality for non-linear iterative PLS ('nipals') objects — methods-nipals • ordr
…
# fortification adds all above columns
fortify(air_nipals)
#> # A tibble: 157 × 7
#>        PC1      PC2      PC3     PC4 Date       missingness .matrix
#>      <dbl>    <dbl>    <dbl>   <dbl> <date>     <lgl>       <chr>  
#>  1 -0.0164 -0.0269  -0.148    0.0433 1973-05-01 FALSE       rows   
#>  2 -0.0229 -0.0748  -0.0588   0.0105 1973-05-02 FALSE       rows   
#>  3 -0.0679  0.00579  0.0326  -0.0433 1973-05-03 FALSE       rows   
#>  4 -0.0622  0.118   -0.171    0.0179 1973-05-04 FALSE       rows   
#>  5 -0.183  -0.0669  -0.0367   0.0633 1973-05-05 TRUE        rows   
#>  6 -0.0986  0.0744  -0.00980  0.113  1973-05-06 TRUE        rows   
#>  7 -0.0286  0.0728  -0.199   -0.0278 1973-05-07 FALSE       rows   
#>  8 -0.128  -0.0189  -0.0399   0.143  1973-05-08 FALSE       rows   
#>  9 -0.194  -0.00471  0.147    0.203  1973-05-09 FALSE       rows   
#> 10 -0.0258 -0.00892 -0.111    0.0102 1973-05-10 TRUE        rows   
#> # … with 147 more rows
…
