Functionality for principal components analysis ('prcomp') objects — methods-prcomp • ordr
…
# fortification adds all above columns
fortify(iris_pca)

#> # A tibble: 154 × 9
#>      PC1     PC2     PC3      PC4 species .matrix .name .center .scale
#>    <dbl>   <dbl>   <dbl>    <dbl> <fct>   <chr>   <chr>   <dbl>  <dbl>
#>  1 -2.26 -0.478   0.127   0.0241  setosa  rows    NA         NA     NA
#>  2 -2.07  0.672   0.234   0.103   setosa  rows    NA         NA     NA
#>  3 -2.36  0.341  -0.0441  0.0283  setosa  rows    NA         NA     NA
#>  4 -2.29  0.595  -0.0910 -0.0657  setosa  rows    NA         NA     NA
#>  5 -2.38 -0.645  -0.0157 -0.0358  setosa  rows    NA         NA     NA
#>  6 -2.07 -1.48   -0.0269  0.00659 setosa  rows    NA         NA     NA
#>  7 -2.44 -0.0475 -0.334  -0.0367  setosa  rows    NA         NA     NA
#>  8 -2.23 -0.222   0.0884 -0.0245  setosa  rows    NA         NA     NA
#>  9 -2.33  1.11   -0.145  -0.0268  setosa  rows    NA         NA     NA
#> 10 -2.18  0.467   0.253  -0.0398  setosa  rows    NA         NA     NA
#> # … with 144 more rows
…
