Functionality for canonical discriminant ('candisc') and correlation ('cancor') objects — methods-candisc • ordr
…
# fortification binds tibbles of canonical weights
fortify(savings_cancor)

#> # A tibble: 105 × 5
#>      can1   can2 .name     .supplement .matrix
#>     <dbl>  <dbl> <chr>     <lgl>       <chr>  
#>  1  0.983 -0.184 pop15     FALSE       rows   
#>  2 -0.970 -0.244 pop75     FALSE       rows   
#>  3 -0.563  0.404 Australia TRUE        rows   
#>  4 -1.47  -0.873 Austria   TRUE        rows   
#>  5 -1.45  -1.03  Belgium   TRUE        rows   
#>  6  0.646 -0.589 Bolivia   TRUE        rows   
#>  7  0.951  0.866 Brazil    TRUE        rows   
#>  8 -0.405 -0.161 Canada    TRUE        rows   
#>  9  0.621  0.557 Chile     TRUE        rows   
#> 10  1.17   0.508 China     TRUE        rows   
#> # … with 95 more rows
…
