Functionality for log-ratio analysis ('lra') objects — methods-lra • ordr
…
# fortification adds all above columns
fortify(arrests_lra)
#> # A tibble: 53 × 5
#>     LRSV1  LRSV2 .name       .abb  .matrix
#>     <dbl>  <dbl> <chr>       <chr> <chr>  
#>  1 -0.680  0.930 Alabama     AL    rows   
#>  2  0.930 -0.625 Alaska      AK    rows   
#>  3 -0.330 -1.31  Arizona     AZ    rows   
#>  4 -0.351  0.277 Arkansas    AR    rows   
#>  5  0.552 -1.00  California  CA    rows   
#>  6  1.23  -0.639 Colorado    CO    rows   
#>  7 -0.436 -1.03  Connecticut CT    rows   
#>  8 -1.54  -1.35  Delaware    DE    rows   
#>  9 -0.547  0.300 Florida     FL    rows   
#> 10  0.158  1.92  Georgia     GA    rows   
#> # … with 43 more rows
…
