Functionality for principal components analysis ('princomp') objects — methods-princomp • ordr
…
# fortification adds all above columns
fortify(iris_pca)
#> # A tibble: 154 × 9
#>    Comp.1  Comp.2  Comp.3   Comp.4 species .matrix .name .center .scale
#>     <dbl>   <dbl>   <dbl>    <dbl> <fct>   <chr>   <chr>   <dbl>  <dbl>
#>  1  -2.68  0.319   0.0279  0.00226 setosa  rows    NA         NA     NA
#>  2  -2.71 -0.177   0.210   0.0990  setosa  rows    NA         NA     NA
#>  3  -2.89 -0.145  -0.0179  0.0200  setosa  rows    NA         NA     NA
#>  4  -2.75 -0.318  -0.0316 -0.0756  setosa  rows    NA         NA     NA
#>  5  -2.73  0.327  -0.0901 -0.0613  setosa  rows    NA         NA     NA
#>  6  -2.28  0.741  -0.169  -0.0242  setosa  rows    NA         NA     NA
#>  7  -2.82 -0.0895 -0.258  -0.0481  setosa  rows    NA         NA     NA
#>  8  -2.63  0.163   0.0219 -0.0453  setosa  rows    NA         NA     NA
#>  9  -2.89 -0.578  -0.0208 -0.0267  setosa  rows    NA         NA     NA
#> 10  -2.67 -0.114   0.198  -0.0563  setosa  rows    NA         NA     NA
#> # … with 144 more rows
…
