Functionality for multiple and joint correspondence analysis ('mjca') objects — methods-mjca • ordr
…
# fortification adds all above columns
fortify(admissions_mca)

#> # A tibble: 4,536 x 9
#>     Dim1  Dim2 .name    .mass   .dist      .inertia .matrix .factor .level
#>    <dbl> <dbl> <chr>    <dbl>   <dbl>         <dbl> <chr>   <chr>   <chr> 
#>  1  3.33  2.68 1     0.000221 0.00672 0.00000000997 rows    NA      NA    
#>  2  3.33  2.68 2     0.000221 0.00672 0.00000000997 rows    NA      NA    
#>  3  3.33  2.68 3     0.000221 0.00672 0.00000000997 rows    NA      NA    
#>  4  3.33  2.68 4     0.000221 0.00672 0.00000000997 rows    NA      NA    
#>  5  3.33  2.68 5     0.000221 0.00672 0.00000000997 rows    NA      NA    
#>  6  3.33  2.68 6     0.000221 0.00672 0.00000000997 rows    NA      NA    
#>  7  3.33  2.68 7     0.000221 0.00672 0.00000000997 rows    NA      NA    
#>  8  3.33  2.68 8     0.000221 0.00672 0.00000000997 rows    NA      NA    
#>  9  3.33  2.68 9     0.000221 0.00672 0.00000000997 rows    NA      NA    
#> 10  3.33  2.68 10    0.000221 0.00672 0.00000000997 rows    NA      NA    
#> # … with 4,526 more rows
…
