Functionality for non-linear iterative PLS ('nipals') objects — methods-ade4 • ordr
…
# fortification adds all above columns
fortify(air_nipals)

#> # A tibble: 157 x 6
#>      Fac1    Fac2    Fac3 .name Date       .matrix
#>     <dbl>   <dbl>   <dbl> <chr> <date>     <chr>  
#>  1 -0.305  0.334  -1.25   1     1973-05-01 rows   
#>  2 -0.426  0.930  -0.501  2     1973-05-02 rows   
#>  3 -1.27  -0.0592  0.279  3     1973-05-03 rows   
#>  4 -1.16  -1.46   -1.44   4     1973-05-04 rows   
#>  5 -3.41   0.906  -0.280  5     1973-05-05 rows   
#>  6 -1.84  -0.958  -0.0819 6     1973-05-06 rows   
#>  7 -0.533 -0.901  -1.68   7     1973-05-07 rows   
#>  8 -2.39   0.256  -0.331  8     1973-05-08 rows   
#>  9 -3.62   0.0954  1.26   9     1973-05-09 rows   
#> 10 -0.481  0.113  -0.942  10    1973-05-10 rows   
#> # … with 147 more rows
…
