Functionality for linear discriminant analysis ('lda') objects — methods-lda • ordr
…
# fortification (without supplement)
fortify(iris_lda, .supplement = FALSE)
#> # A tibble: 157 × 3
#>      LD1    LD2 .matrix
#>    <dbl>  <dbl> <chr>  
#>  1  7.61  0.215 rows   
#>  2 -1.83 -0.728 rows   
#>  3 -5.78  0.513 rows   
#>  4  8.06  0.300 rows   
#>  5  7.13 -0.787 rows   
#>  6  7.49 -0.265 rows   
#>  7  6.81 -0.671 rows   
#>  8  8.13  0.514 rows   
#>  9  7.70  1.46  rows   
#> 10  7.21  0.356 rows   
#> # … with 147 more rows
…
