Construct limited rules offset from the origin — stat_rule • ordr
…
    Other stat layers:
stat_bagplot(),
stat_center(),
stat_chull(),
stat_cone(),
stat_depth(),
stat_projection(),
stat_scale(),
stat_spantree()

    Examples

# Freestone primary glass measurements
print(glass)
#> # A tibble: 68 × 16
#>    Site      Anal  Context Form   SiO2  TiO2 Al2O3   FeO   MnO   MgO   CaO  Na2O
#>    <chr>     <chr> <chr>   <chr> <dbl> <dbl> <dbl> <dbl> <dbl> <dbl> <dbl> <dbl>
#>  1 Bet Eli'… 1     L14.B1… Chunk  76.0 NA     3.29  0.45   0.1  0.57  5.96  12.1
#>  2 Bet Eli'… 2     L14.B1… Chunk  73.6  0.16  3.7   0.85  NA    0.68  6.65  13.0
#>  3 Bet Eli'… 3     L14.B1… Chunk  75.0  0.13  3.36  0.53  NA    0.58  7.27  11.4
#>  4 Bet Eli'… 4     L14.B1… Chunk  76.0 NA     3.06  0.35   0.1  0.61  7.63  11.3
#>  5 Bet Eli'… 5     L14.B1… Chunk  75.9 NA     3.13  0.33  NA    0.65  7.49  11.4
#>  6 Bet Eli'… 6     L14.B1… Chunk  74.4  0.14  3.33  0.45  NA    0.62  7.2   12.6
#>  7 Bet Eli'… 29    L31.B3… Chunk  75.8  0.09  3.27  0.52  NA    0.64  6.52  11.8
#>  8 Bet Eli'… 30    L31.B3… Chunk  73.4  0.11  3.5   0.68  NA    0.58  7.73  12.8
#>  9 Bet Eli'… 31    L31.B3… Chunk  75.2  0.11  3.39  0.49  NA    0.53  7.28  11.7
#> 10 Bet Eli'… 32    L31.B3… Chunk  73.7  0.16  3.42  0.53  NA    0.6   7.7   12.4
#> # ℹ 58 more rows
#> # ℹ 4 more variables: K2O <dbl>, P2O5 <dbl>, Cl <dbl>, SO3 <dbl>
…
