Tidiers for 'tbl_ord' objects — tidiers • ordr
…
# use `fortify()` to prepare either matrix factor for `ggplot()`
fortify(iris_pca, .matrix = "cases")
#> # A tibble: 150 × 7
#>      PC1     PC2     PC3      PC4 Species .matrix .supplement
#>    <dbl>   <dbl>   <dbl>    <dbl> <fct>   <chr>   <lgl>      
#>  1 -2.26 -0.478   0.127   0.0241  setosa  rows    NA         
#>  2 -2.07  0.672   0.234   0.103   setosa  rows    NA         
#>  3 -2.36  0.341  -0.0441  0.0283  setosa  rows    NA         
#>  4 -2.29  0.595  -0.0910 -0.0657  setosa  rows    NA         
#>  5 -2.38 -0.645  -0.0157 -0.0358  setosa  rows    NA         
#>  6 -2.07 -1.48   -0.0269  0.00659 setosa  rows    NA         
#>  7 -2.44 -0.0475 -0.334  -0.0367  setosa  rows    NA         
#>  8 -2.23 -0.222   0.0884 -0.0245  setosa  rows    NA         
#>  9 -2.33  1.11   -0.145  -0.0268  setosa  rows    NA         
#> 10 -2.18  0.467   0.253  -0.0398  setosa  rows    NA         
#> # … with 140 more rows
fortify(iris_pca, .matrix = "variables")
#> # A tibble: 4 × 9
#>      PC1     PC2    PC3    PC4 .name        .center .scale .matrix .supplement
#>    <dbl>   <dbl>  <dbl>  <dbl> <chr>          <dbl>  <dbl> <chr>   <lgl>      
#> 1  0.521 -0.377   0.720  0.261 Sepal.Length    5.84  0.828 cols    NA         
#> 2 -0.269 -0.923  -0.244 -0.124 Sepal.Width     3.06  0.436 cols    NA         
#> 3  0.580 -0.0245 -0.142 -0.801 Petal.Length    3.76  1.77  cols    NA         
#> 4  0.565 -0.0669 -0.634  0.524 Petal.Width     1.20  0.762 cols    NA         
# ... or to prepare both for `ggbiplot()`
fortify(iris_pca)
#> # A tibble: 154 × 10
#>      PC1     PC2     PC3      PC4 Species .matrix .supplement .name .center
#>    <dbl>   <dbl>   <dbl>    <dbl> <fct>   <chr>   <lgl>       <chr>   <dbl>
#>  1 -2.26 -0.478   0.127   0.0241  setosa  rows    NA          NA         NA
#>  2 -2.07  0.672   0.234   0.103   setosa  rows    NA          NA         NA
#>  3 -2.36  0.341  -0.0441  0.0283  setosa  rows    NA          NA         NA
#>  4 -2.29  0.595  -0.0910 -0.0657  setosa  rows    NA          NA         NA
#>  5 -2.38 -0.645  -0.0157 -0.0358  setosa  rows    NA          NA         NA
#>  6 -2.07 -1.48   -0.0269  0.00659 setosa  rows    NA          NA         NA
#>  7 -2.44 -0.0475 -0.334  -0.0367  setosa  rows    NA          NA         NA
#>  8 -2.23 -0.222   0.0884 -0.0245  setosa  rows    NA          NA         NA
#>  9 -2.33  1.11   -0.145  -0.0268  setosa  rows    NA          NA         NA
#> 10 -2.18  0.467   0.253  -0.0398  setosa  rows    NA          NA         NA
#> # … with 144 more rows, and 1 more variable: .scale <dbl>
…
